…
  # rds file github url
  github_url <- "https://raw.githubusercontent.com/t-emery/tidy_imf_weo_2022_oct/master/00_data_processed/codebook.csv"
  
  github_url |> 
    readr::read_csv()
}
```

``` r
download_tidy_weo_2022_oct_codebook()
```

    # A tibble: 45 × 5
       short_name_unit                         short_name    short…¹ categ…² weo_s…³
       <chr>                                   <chr>         <chr>   <chr>   <chr>  
     1 Real GDP (bn local currency)            Real GDP      bn loc… GDP     NGDP_R 
     2 Real GDP (% change)                     Real GDP      % chan… GDP     NGDP_R…
     3 Nominal GDP (bn local currency)         Nominal GDP   bn loc… GDP     NGDP   
     4 Nominal GDP (bn USD)                    Nominal GDP   bn USD  GDP     NGDPD  
     5 Nominal GDP (bn PPP)                    Nominal GDP   bn PPP  GDP     PPPGDP 
     6 GDP Deflator (index)                    GDP Deflator  index   GDP     NGDP_D 
     7 Real GDP per capita (local currency)    Real GDP per… local … GDP     NGDPRPC
     8 Real GDP per capita (PPP)               Real GDP per… PPP     GDP     NGDPRP…
     9 Nominal GDP per capita (local currency) Nominal GDP … local … GDP     NGDPPC 
    10 Nominal GDP per capita (USD)            Nominal GDP … USD     GDP     NGDPDPC
    # … with 35 more rows, and abbreviated variable names ¹​short_unit, ²​category,
    #   ³​weo_subject_code
