…
weo_codes_tbl
```

    # A tibble: 45 × 5
       short_name_unit                         short_name    short…¹ categ…² weo_s…³
       <chr>                                   <chr>         <chr>   <chr>   <chr>  
     1 Real GDP (bn local currency)            Real GDP      bn loc… GDP     NGDP_R 
     2 Real GDP (% change)                     Real GDP      % chan… GDP     NGDP_R…
     3 Nominal GDP (bn local currency)         Nominal GDP   bn loc… GDP     NGDP   
     4 Nominal GDP (bn USD)                    Nominal GDP   bn USD  GDP     NGDPD  
     5 Nominal GDP (bn PPP)                    Nominal GDP   bn PPP  GDP     PPPGDP 
     6 GDP Deflator (index)                    GDP Deflator  index   GDP     NGDP_D 
     7 Real GDP per capita (local currency)    Real GDP per… local … GDP     NGDPRPC
     8 Real GDP per capita (PPP)               Real GDP per… PPP     GDP     NGDPRP…
     9 Nominal GDP per capita (local currency) Nominal GDP … local … GDP     NGDPPC 
    10 Nominal GDP per capita (USD)            Nominal GDP … USD     GDP     NGDPDPC
    # … with 35 more rows, and abbreviated variable names ¹​short_unit, ²​category,
    #   ³​weo_subject_code
…
Take a look, and make sure that everything looks right.

``` r
raw_weo <- read_raw_weo(
  year_4_digit = weo_year,
  month_3_letter = weo_month,
  country_or_group = weo_type,
  subdirectory = subdirectory_for_raw_data
)

raw_weo
```

    # A tibble: 8,625 × 58
       WEO Countr…¹ ISO   WEO S…² Country Subje…³ Subje…⁴ Units Scale Count…⁵ `1980`
       <chr>        <chr> <chr>   <chr>   <chr>   <chr>   <chr> <chr> <chr>   <chr> 
     1 512          AFG   NGDP_R  Afghan… Gross … "Expre… Nati… Bill… Source… <NA>  
     2 512          AFG   NGDP_R… Afghan… Gross … "Annua… Perc… <NA>  See no… <NA>  
     3 512          AFG   NGDP    Afghan… Gross … "Expre… Nati… Bill… Source… <NA>  
     4 512          AFG   NGDPD   Afghan… Gross … "Value… U.S.… Bill… See no… <NA>  
     5 512          AFG   PPPGDP  Afghan… Gross … "These… Purc… Bill… See no… <NA>  
     6 512          AFG   NGDP_D  Afghan… Gross … "The G… Index <NA>  See no… <NA>  
     7 512          AFG   NGDPRPC Afghan… Gross … "GDP i… Nati… Units See no… <NA>  
     8 512          AFG   NGDPRP… Afghan… Gross … "GDP i… Purc… Units See no… <NA>  
     9 512          AFG   NGDPPC  Afghan… Gross … "GDP i… Nati… Units See no… <NA>  
    10 512          AFG   NGDPDPC Afghan… Gross … "GDP i… U.S.… Units See no… <NA>  
    # … with 8,615 more rows, 48 more variables: `1981` <chr>, `1982` <chr>,
    #   `1983` <chr>, `1984` <chr>, `1985` <chr>, `1986` <chr>, `1987` <chr>,
    #   `1988` <chr>, `1989` <chr>, `1990` <chr>, `1991` <chr>, `1992` <chr>,
    #   `1993` <chr>, `1994` <chr>, `1995` <chr>, `1996` <chr>, `1997` <chr>,
    #   `1998` <chr>, `1999` <chr>, `2000` <chr>, `2001` <chr>, `2002` <chr>,
    #   `2003` <chr>, `2004` <chr>, `2005` <chr>, `2006` <chr>, `2007` <chr>,
    #   `2008` <chr>, `2009` <chr>, `2010` <chr>, `2011` <chr>, `2012` <chr>, …
…
Make sure that everything looks right.

``` r
tidy_weo <- raw_weo |> 
  make_tidy_weo_by_country_from_raw(year_4_digit = weo_year,
                                    month_3_letter = weo_month) 
```

    Warning in countrycode_convert(sourcevar = sourcevar, origin = origin, destination = dest, : Some values were not matched unambiguously: UVK, WBG

``` r
tidy_weo
```

    # A tibble: 414,000 × 9
       country_name iso3c short_name_u…¹ short…² short…³ categ…⁴  year value weo_v…⁵
       <chr>        <chr> <chr>          <chr>   <chr>   <chr>   <dbl> <dbl> <chr>  
     1 Afghanistan  AFG   Real GDP (bn … Real G… bn loc… GDP      1980    NA 2022 -…
     2 Afghanistan  AFG   Real GDP (bn … Real G… bn loc… GDP      1981    NA 2022 -…
     3 Afghanistan  AFG   Real GDP (bn … Real G… bn loc… GDP      1982    NA 2022 -…
     4 Afghanistan  AFG   Real GDP (bn … Real G… bn loc… GDP      1983    NA 2022 -…
     5 Afghanistan  AFG   Real GDP (bn … Real G… bn loc… GDP      1984    NA 2022 -…
     6 Afghanistan  AFG   Real GDP (bn … Real G… bn loc… GDP      1985    NA 2022 -…
     7 Afghanistan  AFG   Real GDP (bn … Real G… bn loc… GDP      1986    NA 2022 -…
     8 Afghanistan  AFG   Real GDP (bn … Real G… bn loc… GDP      1987    NA 2022 -…
     9 Afghanistan  AFG   Real GDP (bn … Real G… bn loc… GDP      1988    NA 2022 -…
    10 Afghanistan  AFG   Real GDP (bn … Real G… bn loc… GDP      1989    NA 2022 -…
    # … with 413,990 more rows, and abbreviated variable names ¹​short_name_unit,
    #   ²​short_name, ³​short_unit, ⁴​category, ⁵​weo_vintage

### Make the data wide to be more space efficient on GitHub

``` r
tidy_weo_wide <- tidy_weo |> 
  pivot_wider(names_from = year, values_from = value)

tidy_weo_wide
```

    # A tibble: 8,625 × 55
       country_…¹ iso3c short…² short…³ short…⁴ categ…⁵ weo_v…⁶ `1980` `1981` `1982`
       <chr>      <chr> <chr>   <chr>   <chr>   <chr>   <chr>    <dbl>  <dbl>  <dbl>
     1 Afghanist… AFG   Real G… Real G… bn loc… GDP     2022 -…     NA     NA     NA
     2 Afghanist… AFG   Real G… Real G… % chan… GDP     2022 -…     NA     NA     NA
     3 Afghanist… AFG   Nomina… Nomina… bn loc… GDP     2022 -…     NA     NA     NA
     4 Afghanist… AFG   Nomina… Nomina… bn USD  GDP     2022 -…     NA     NA     NA
     5 Afghanist… AFG   Nomina… Nomina… bn PPP  GDP     2022 -…     NA     NA     NA
     6 Afghanist… AFG   GDP De… GDP De… index   GDP     2022 -…     NA     NA     NA
     7 Afghanist… AFG   Real G… Real G… local … GDP     2022 -…     NA     NA     NA
     8 Afghanist… AFG   Real G… Real G… PPP     GDP     2022 -…     NA     NA     NA
     9 Afghanist… AFG   Nomina… Nomina… local … GDP     2022 -…     NA     NA     NA
    10 Afghanist… AFG   Nomina… Nomina… USD     GDP     2022 -…     NA     NA     NA
    # … with 8,615 more rows, 45 more variables: `1983` <dbl>, `1984` <dbl>,
    #   `1985` <dbl>, `1986` <dbl>, `1987` <dbl>, `1988` <dbl>, `1989` <dbl>,
    #   `1990` <dbl>, `1991` <dbl>, `1992` <dbl>, `1993` <dbl>, `1994` <dbl>,
    #   `1995` <dbl>, `1996` <dbl>, `1997` <dbl>, `1998` <dbl>, `1999` <dbl>,
    #   `2000` <dbl>, `2001` <dbl>, `2002` <dbl>, `2003` <dbl>, `2004` <dbl>,
    #   `2005` <dbl>, `2006` <dbl>, `2007` <dbl>, `2008` <dbl>, `2009` <dbl>,
    #   `2010` <dbl>, `2011` <dbl>, `2012` <dbl>, `2013` <dbl>, `2014` <dbl>, …
…
If you want to change this back to long-format, it’s one line of code:

``` r
tidy_weo_wide |> 
  # pivot longer all columns that are years
  pivot_longer(cols = matches("\\d{4}"), names_to = "year") 
```

    # A tibble: 414,000 × 9
       country_name iso3c short_name_u…¹ short…² short…³ categ…⁴ weo_v…⁵ year  value
       <chr>        <chr> <chr>          <chr>   <chr>   <chr>   <chr>   <chr> <dbl>
     1 Afghanistan  AFG   Real GDP (bn … Real G… bn loc… GDP     2022 -… 1980     NA
     2 Afghanistan  AFG   Real GDP (bn … Real G… bn loc… GDP     2022 -… 1981     NA
     3 Afghanistan  AFG   Real GDP (bn … Real G… bn loc… GDP     2022 -… 1982     NA
     4 Afghanistan  AFG   Real GDP (bn … Real G… bn loc… GDP     2022 -… 1983     NA
     5 Afghanistan  AFG   Real GDP (bn … Real G… bn loc… GDP     2022 -… 1984     NA
     6 Afghanistan  AFG   Real GDP (bn … Real G… bn loc… GDP     2022 -… 1985     NA
     7 Afghanistan  AFG   Real GDP (bn … Real G… bn loc… GDP     2022 -… 1986     NA
     8 Afghanistan  AFG   Real GDP (bn … Real G… bn loc… GDP     2022 -… 1987     NA
     9 Afghanistan  AFG   Real GDP (bn … Real G… bn loc… GDP     2022 -… 1988     NA
    10 Afghanistan  AFG   Real GDP (bn … Real G… bn loc… GDP     2022 -… 1989     NA
    # … with 413,990 more rows, and abbreviated variable names ¹​short_name_unit,
    #   ²​short_name, ³​short_unit, ⁴​category, ⁵​weo_vintage
…
